[gd_scene load_steps=4 format=2]

[ext_resource path="res://Platforms/Platform.gd" type="Script" id=1]
[ext_resource path="res://Platforms/Sprites/platform_normal.png" type="Texture" id=2]
[ext_resource path="res://Items/Collectable.tscn" type="PackedScene" id=3]

[node name="BasicPlatform" type="StaticBody2D" groups=[
"PLATFORM",
]]

input_pickable = false
collision_layer = 1
collision_mask = 1
constant_linear_velocity = Vector2( 0, 0 )
constant_angular_velocity = 0.0
friction = 1.0
bounce = 0.0
script = ExtResource( 1 )
_sections_unfolded = [ "Collision", "Transform" ]

[node name="Sprite" type="Sprite" parent="." index="0"]

texture = ExtResource( 2 )
_sections_unfolded = [ "Transform" ]

[node name="Sprite2" type="Sprite" parent="." index="1"]

position = Vector2( 16, 0 )
texture = ExtResource( 2 )
_sections_unfolded = [ "Transform" ]

[node name="Collider" type="CollisionPolygon2D" parent="." index="2"]

position = Vector2( 8, 0 )
build_mode = 0
polygon = PoolVector2Array( -16, -5, 18, -5, 18, 8, -16, 8 )

[node name="VisibilityNotifier2D" type="VisibilityNotifier2D" parent="." index="3"]

position = Vector2( 34, 0 )
rect = Rect2( -10, -10, 20, 20 )

[node name="Collectable" parent="." index="4" instance=ExtResource( 3 )]

position = Vector2( 8, -18 )

[connection signal="screen_exited" from="VisibilityNotifier2D" to="." method="_on_VisibilityNotifier2D_screen_exited"]


